   61.60  155.0
   65.55  155.0
   69.76  155.0
   74.23  155.0
   78.99  155.0
   84.05  155.0
   89.44  155.0
   95.18  155.0
  101.28  155.0
  107.77  155.0
  114.68  155.0
  122.04  155.0
  129.86  155.0
  138.19  155.0
  147.05  155.0
  156.48  155.0
  166.51  155.0
  177.19  155.0
  188.55  155.0
  200.64  155.0
  213.50  155.0
  227.19  155.0
  241.76  155.0
  257.26  155.0
  273.75  155.0
  291.31  155.0
  309.98  155.0
  329.86  155.0
  351.01  155.0
  373.52  155.0
  397.46  155.0
  422.95  155.0
  450.07  155.0
  478.92  155.0
  509.63  155.0
  542.31  155.0
  577.08  155.0
  614.08  155.0
  653.45  155.0
  695.35  155.0
  739.94  155.0
  787.38  155.0
  837.87  155.0
  891.59  155.0
